<?xml version="1.0" encoding="UTF-8"?>
<svg xmlns="http://www.w3.org/2000/svg" xmlns:xlink="http://www.w3.org/1999/xlink" width="35pt" height="35pt" viewBox="0 0 35 35" version="1.1">
<g id="surface1">
<path style=" stroke:none;fill-rule:nonzero;fill:rgb(32.941176%,50.980392%,20.784314%);fill-opacity:1;" d="M 21.875 5.46875 L 30.078125 5.46875 L 30.078125 10.9375 L 21.875 10.9375 Z M 21.875 5.46875 "/>
<path style=" stroke:none;fill-rule:nonzero;fill:rgb(32.941176%,50.980392%,20.784314%);fill-opacity:1;" d="M 17.5 26.796875 C 13.582031 26.796875 10.390625 23.609375 10.390625 19.6875 C 10.390625 15.765625 13.582031 12.578125 17.5 12.578125 C 21.417969 12.578125 24.609375 15.765625 24.609375 19.6875 C 24.609375 23.609375 21.417969 26.796875 17.5 26.796875 Z M 17.5 26.796875 "/>
<path style=" stroke:none;fill-rule:nonzero;fill:rgb(32.941176%,50.980392%,20.784314%);fill-opacity:1;" d="M 30.625 30.535156 L 30.625 5.46875 L 29.410156 0.546875 L 5.589844 0.546875 L 4.375 5.402344 L 4.375 30.535156 L 3.828125 32.175781 L 3.828125 34.453125 L 31.171875 34.453125 L 31.171875 32.175781 Z M 5.46875 27.890625 L 5.46875 11.484375 L 29.53125 11.484375 L 29.53125 27.890625 L 27.34375 27.890625 L 27.34375 28.984375 L 29.53125 28.984375 L 29.53125 30.078125 L 5.46875 30.078125 L 5.46875 28.984375 L 26.25 28.984375 L 26.25 27.890625 Z M 11.484375 6.015625 L 11.484375 10.390625 L 5.46875 10.390625 L 5.46875 6.015625 Z M 29.53125 10.390625 L 12.578125 10.390625 L 12.578125 6.015625 L 29.53125 6.015625 Z M 28.558594 1.640625 L 29.378906 4.921875 L 5.621094 4.921875 L 6.441406 1.640625 Z M 30.078125 33.359375 L 4.921875 33.359375 L 4.921875 32.355469 L 5.316406 31.171875 L 29.683594 31.171875 L 30.078125 32.355469 Z M 30.078125 33.359375 "/>
<path style=" stroke:none;fill-rule:nonzero;fill:rgb(32.941176%,50.980392%,20.784314%);fill-opacity:1;" d="M 17.5 14.765625 C 14.785156 14.765625 12.578125 16.972656 12.578125 19.6875 C 12.578125 22.402344 14.785156 24.609375 17.5 24.609375 C 19.140625 24.609375 20.671875 23.773438 21.582031 22.421875 L 24.609375 22.421875 L 24.609375 21.328125 L 21.875 21.328125 L 21.875 18.046875 L 24.609375 18.046875 L 24.609375 16.953125 L 21.582031 16.953125 C 20.671875 15.601562 19.140625 14.765625 17.5 14.765625 Z M 17.5 23.515625 C 15.390625 23.515625 13.671875 21.796875 13.671875 19.6875 C 13.671875 17.578125 15.390625 15.859375 17.5 15.859375 C 18.839844 15.859375 20.089844 16.574219 20.78125 17.722656 L 20.78125 21.652344 C 20.089844 22.800781 18.839844 23.515625 17.5 23.515625 Z M 17.5 23.515625 "/>
<path style=" stroke:none;fill-rule:nonzero;fill:rgb(32.941176%,50.980392%,20.784314%);fill-opacity:1;" d="M 14.765625 8.75 L 15.960938 8.75 C 16.1875 9.386719 16.789062 9.84375 17.5 9.84375 C 18.210938 9.84375 18.8125 9.386719 19.039062 8.75 L 20.234375 8.75 L 20.234375 7.65625 L 19.039062 7.65625 C 18.8125 7.019531 18.210938 6.5625 17.5 6.5625 C 16.789062 6.5625 16.1875 7.019531 15.960938 7.65625 L 14.765625 7.65625 Z M 17.5 7.65625 C 17.800781 7.65625 18.046875 7.902344 18.046875 8.203125 C 18.046875 8.503906 17.800781 8.75 17.5 8.75 C 17.199219 8.75 16.953125 8.503906 16.953125 8.203125 C 16.953125 7.902344 17.199219 7.65625 17.5 7.65625 Z M 17.5 7.65625 "/>
<path style=" stroke:none;fill-rule:nonzero;fill:rgb(32.941176%,50.980392%,20.784314%);fill-opacity:1;" d="M 22.96875 7.65625 L 24.0625 7.65625 L 24.0625 8.75 L 22.96875 8.75 Z M 22.96875 7.65625 "/>
<path style=" stroke:none;fill-rule:nonzero;fill:rgb(32.941176%,50.980392%,20.784314%);fill-opacity:1;" d="M 25.15625 7.65625 L 26.25 7.65625 L 26.25 8.75 L 25.15625 8.75 Z M 25.15625 7.65625 "/>
<path style=" stroke:none;fill-rule:nonzero;fill:rgb(32.941176%,50.980392%,20.784314%);fill-opacity:1;" d="M 27.34375 7.65625 L 28.4375 7.65625 L 28.4375 8.75 L 27.34375 8.75 Z M 27.34375 7.65625 "/>
<path style=" stroke:none;fill-rule:nonzero;fill:rgb(32.941176%,50.980392%,20.784314%);fill-opacity:1;" d="M 7.65625 2.734375 L 14.21875 2.734375 L 14.21875 3.828125 L 7.65625 3.828125 Z M 7.65625 2.734375 "/>
<path style=" stroke:none;fill-rule:nonzero;fill:rgb(32.941176%,50.980392%,20.784314%);fill-opacity:1;" d="M 15.3125 2.734375 L 16.40625 2.734375 L 16.40625 3.828125 L 15.3125 3.828125 Z M 15.3125 2.734375 "/>
<path style=" stroke:none;fill-rule:nonzero;fill:rgb(32.941176%,50.980392%,20.784314%);fill-opacity:1;" d="M 6.5625 7.65625 L 10.390625 7.65625 L 10.390625 8.75 L 6.5625 8.75 Z M 6.5625 7.65625 "/>
</g>
</svg>
